"0","outlier_1 <- 300.0"
"0","data$oldpeak[data$oldpeak==outlier_1] <- NA"
"0",""
"0","outlier_2 <- 50.0"
"0","data$oldpeak[data$oldpeak==outlier_2] <- NA"
"0",""
"0",""
"0",""
"0","outlier_4 <- 10.0"
"0","data$oldpeak[data$oldpeak==outlier_4] <- NA"
"0",""
"0","ggplot(mapping=aes(x=data$oldpeak)) + geom_density()"
