"0","data$target <- as.logical(data$target)"
"0","summary(data$target)"
"1","   Mode "
"1","  FALSE "
"1","   TRUE "
"1","
"
"1","logical "
"1","    138 "
"1","    165 "
"1","
"
"0","plot(x=data$target, main = ""Variable target"", xlab = ""Frecuencia"", ylab = ""target"")"
